Depth,A,B,C,D,E,F,G,H,I,J,K,L,Out of Range
40,5,15,25,30,40,50,70,80,100,110,130,150,150
50,0,10,15,25,30,40,50,60,70,80,80,100,150
60,0,10,15,20,25,30,40,50,55,60,60,80,150
70,0,5,10,15,20,30,35,40,45,50,60,70,150
80,0,5,10,15,20,25,30,35,40,40,50,60,150
90,0,5,10,12,15,20,25,30,30,40,40,50,150
100,0,5,7,10,15,20,22,25,25,25,40,40,150
110,0,0,5,10,13,15,20,20,20,30,30,30,150
120,0,0,5,10,12,15,15,15,25,30,30,30,150
130,0,0,5,8,10,10,10,10,10,25,25,25,150
